…
``` r
mean(c2015$TRAV_SP,na.rm=TRUE)
```

    ## [1] 43.79245

Question 12
-----------

``` r
drivers <- c2015[c2015$SEAT_POS == "Front Seat, Left Side",]
head(drivers,50)
```

    ## # A tibble: 50 x 27
    ##    STATE ST_CASE VEH_NO PER_NO COUNTY   DAY MONTH  HOUR MINUTE   AGE SEX  
    ##    <chr>   <dbl>  <dbl>  <dbl>  <dbl> <dbl> <chr> <dbl>  <dbl> <dbl> <chr>
    ##  1 New ~  340336      1      1     27    19 Sept~     3     17  39.3 Fema~
    ##  2 Ariz~   40327      1      1     13     7 May      22     15  47   Fema~
    ##  3 Tenn~  470789      1      1    163     2 Dece~     8     26  23   Male 
    ##  4 Miss~  290576      1      1    201     2 Octo~    15     38  55   Male 
    ##  5 Cali~   62865      1      1     19     6 June     15     20  56   Male 
    ##  6 Alab~   10286      5      1    115    30 May      14     36  32   Male 
    ##  7 Sout~  450153      1      1     29    19 March    14     15  54   Male 
    ##  8 Indi~  180596      2      1    141    12 Octo~    17     50  44   Male 
    ##  9 Texas  481831      1      1    347     9 Augu~     4     56  39   Fema~
    ## 10 Kent~  210262      2      1    151    17 June     13     25  44   Male 
    ## # ... with 40 more rows, and 16 more variables: PER_TYP <chr>,
    ## #   INJ_SEV <chr>, SEAT_POS <chr>, DRINKING <chr>, MAN_COLL <chr>,
    ## #   OWNER <chr>, MOD_YEAR <chr>, TRAV_SP <dbl>, DEFORMED <chr>,
    ## #   DAY_WEEK <chr>, ROUTE <chr>, LATITUDE <dbl>, LONGITUD <dbl>,
    ## #   HARM_EV <chr>, LGT_COND <chr>, WEATHER <chr>
…
